VHDL/SPI Master/NoahSPIMASTER/SPIMASTER_V9/simulation/qsim/SPIMASTER.msim.vcd
$comment
	File created using the following command:
		vcd file SPIMASTER.msim.vcd -direction
$end
$date
	Mon Apr 27 13:58:02 2020
$end
$version
	ModelSim Version 10.5b
$end
$timescale
	1ps
$end

$scope module spimaster_vhd_vec_tst $end
$var wire 1 ! CLK $end
$var wire 1 " RST $end
$var wire 1 # RX_DATA [7] $end
$var wire 1 $ RX_DATA [6] $end
$var wire 1 % RX_DATA [5] $end
$var wire 1 & RX_DATA [4] $end
$var wire 1 ' RX_DATA [3] $end
$var wire 1 ( RX_DATA [2] $end
$var wire 1 ) RX_DATA [1] $end
$var wire 1 * RX_DATA [0] $end
$var wire 1 + RX_EN $end
$var wire 1 , SClk $end
$var wire 1 - SPI_MISO $end
$var wire 1 . SPI_MOSI $end
$var wire 1 / TX_DATA [7] $end
$var wire 1 0 TX_DATA [6] $end
$var wire 1 1 TX_DATA [5] $end
$var wire 1 2 TX_DATA [4] $end
$var wire 1 3 TX_DATA [3] $end
$var wire 1 4 TX_DATA [2] $end
$var wire 1 5 TX_DATA [1] $end
$var wire 1 6 TX_DATA [0] $end
$var wire 1 7 TX_EN $end
$var wire 1 8 TX_RDY $end

$scope module i1 $end
$var wire 1 9 gnd $end
$var wire 1 : vcc $end
$var wire 1 ; unknown $end
$var wire 1 < devoe $end
$var wire 1 = devclrn $end
$var wire 1 > devpor $end
$var wire 1 ? ww_devoe $end
$var wire 1 @ ww_devclrn $end
$var wire 1 A ww_devpor $end
$var wire 1 B ww_RST $end
$var wire 1 C ww_CLK $end
$var wire 1 D ww_TX_DATA [7] $end
$var wire 1 E ww_TX_DATA [6] $end
$var wire 1 F ww_TX_DATA [5] $end
$var wire 1 G ww_TX_DATA [4] $end
$var wire 1 H ww_TX_DATA [3] $end
$var wire 1 I ww_TX_DATA [2] $end
$var wire 1 J ww_TX_DATA [1] $end
$var wire 1 K ww_TX_DATA [0] $end
$var wire 1 L ww_TX_EN $end
$var wire 1 M ww_TX_RDY $end
$var wire 1 N ww_RX_DATA [7] $end
$var wire 1 O ww_RX_DATA [6] $end
$var wire 1 P ww_RX_DATA [5] $end
$var wire 1 Q ww_RX_DATA [4] $end
$var wire 1 R ww_RX_DATA [3] $end
$var wire 1 S ww_RX_DATA [2] $end
$var wire 1 T ww_RX_DATA [1] $end
$var wire 1 U ww_RX_DATA [0] $end
$var wire 1 V ww_RX_EN $end
$var wire 1 W ww_SClk $end
$var wire 1 X ww_SPI_MISO $end
$var wire 1 Y ww_SPI_MOSI $end
$var wire 1 Z \RST~inputclkctrl_INCLK_bus\ [3] $end
$var wire 1 [ \RST~inputclkctrl_INCLK_bus\ [2] $end
$var wire 1 \ \RST~inputclkctrl_INCLK_bus\ [1] $end
$var wire 1 ] \RST~inputclkctrl_INCLK_bus\ [0] $end
$var wire 1 ^ \CLK~inputclkctrl_INCLK_bus\ [3] $end
$var wire 1 _ \CLK~inputclkctrl_INCLK_bus\ [2] $end
$var wire 1 ` \CLK~inputclkctrl_INCLK_bus\ [1] $end
$var wire 1 a \CLK~inputclkctrl_INCLK_bus\ [0] $end
$var wire 1 b \TX_DATA[0]~input_o\ $end
$var wire 1 c \TX_DATA[1]~input_o\ $end
$var wire 1 d \TX_DATA[2]~input_o\ $end
$var wire 1 e \TX_DATA[3]~input_o\ $end
$var wire 1 f \TX_DATA[4]~input_o\ $end
$var wire 1 g \TX_DATA[5]~input_o\ $end
$var wire 1 h \TX_DATA[6]~input_o\ $end
$var wire 1 i \SPI_MISO~input_o\ $end
$var wire 1 j \TX_RDY~output_o\ $end
$var wire 1 k \RX_DATA[0]~output_o\ $end
$var wire 1 l \RX_DATA[1]~output_o\ $end
$var wire 1 m \RX_DATA[2]~output_o\ $end
$var wire 1 n \RX_DATA[3]~output_o\ $end
$var wire 1 o \RX_DATA[4]~output_o\ $end
$var wire 1 p \RX_DATA[5]~output_o\ $end
$var wire 1 q \RX_DATA[6]~output_o\ $end
$var wire 1 r \RX_DATA[7]~output_o\ $end
$var wire 1 s \RX_EN~output_o\ $end
$var wire 1 t \SClk~output_o\ $end
$var wire 1 u \SPI_MOSI~output_o\ $end
$var wire 1 v \CLK~input_o\ $end
$var wire 1 w \CLK~inputclkctrl_outclk\ $end
$var wire 1 x \TX_EN~input_o\ $end
$var wire 1 y \sSCLK_EDGES[0]~5_combout\ $end
$var wire 1 z \~GND~combout\ $end
$var wire 1 { \RST~input_o\ $end
$var wire 1 | \RST~inputclkctrl_outclk\ $end
$var wire 1 } \LessThan0~0_combout\ $end
$var wire 1 ~ \sCLK_COUNT[0]~2_combout\ $end
$var wire 1 !! \sCLK_COUNT[1]~0_combout\ $end
$var wire 1 "! \sCLK_COUNT[1]~1_combout\ $end
$var wire 1 #! \sSCLK_EDGES[4]~15_combout\ $end
$var wire 1 $! \sSCLK_EDGES[4]~16_combout\ $end
$var wire 1 %! \sSCLK_EDGES[0]~6\ $end
$var wire 1 &! \sSCLK_EDGES[1]~7_combout\ $end
$var wire 1 '! \sSCLK_EDGES[1]~8\ $end
$var wire 1 (! \sSCLK_EDGES[2]~9_combout\ $end
$var wire 1 )! \sSCLK_EDGES[2]~10\ $end
$var wire 1 *! \sSCLK_EDGES[3]~11_combout\ $end
$var wire 1 +! \sSCLK_EDGES[3]~12\ $end
$var wire 1 ,! \sSCLK_EDGES[4]~13_combout\ $end
$var wire 1 -! \TX_RDY~0_combout\ $end
$var wire 1 .! \TX_RDY~reg0feeder_combout\ $end
$var wire 1 /! \TX_RDY~reg0_q\ $end
$var wire 1 0! \sSCLK~0_combout\ $end
$var wire 1 1! \sSCLK~q\ $end
$var wire 1 2! \SClk~reg0feeder_combout\ $end
$var wire 1 3! \SClk~reg0_q\ $end
$var wire 1 4! \sTX_EN~feeder_combout\ $end
$var wire 1 5! \sTX_EN~q\ $end
$var wire 1 6! \TX_DATA[7]~input_o\ $end
$var wire 1 7! \sTX_DATA[7]~0_combout\ $end
$var wire 1 8! \sTX_RDY~q\ $end
$var wire 1 9! \SPI_MOSI~0_combout\ $end
$var wire 1 :! \SPI_MOSI~reg0_q\ $end
$var wire 1 ;! sSCLK_EDGES [4] $end
$var wire 1 <! sSCLK_EDGES [3] $end
$var wire 1 =! sSCLK_EDGES [2] $end
$var wire 1 >! sSCLK_EDGES [1] $end
$var wire 1 ?! sSCLK_EDGES [0] $end
$var wire 1 @! sTX_DATA [7] $end
$var wire 1 A! sTX_DATA [6] $end
$var wire 1 B! sTX_DATA [5] $end
$var wire 1 C! sTX_DATA [4] $end
$var wire 1 D! sTX_DATA [3] $end
$var wire 1 E! sTX_DATA [2] $end
$var wire 1 F! sTX_DATA [1] $end
$var wire 1 G! sTX_DATA [0] $end
$var wire 1 H! sCLK_COUNT [1] $end
$var wire 1 I! sCLK_COUNT [0] $end
$upscope $end
$upscope $end
$enddefinitions $end
#0
$dumpvars
0!
0"
0+
0,
0-
0.
07
08
09
1:
x;
1<
1=
1>
1?
1@
1A
0B
0C
0L
0M
0V
0W
0X
0Y
1b
0c
1d
1e
0f
1g
1h
0i
0j
0k
0l
0m
0n
1o
1p
1q
1r
0s
0t
0u
0v
0w
0x
1y
0z
0{
0|
0}
0~
0!!
0"!
1#!
0$!
0%!
1&!
1'!
1(!
0)!
1*!
1+!
1,!
1-!
1.!
0/!
00!
01!
02!
03!
04!
05!
06!
07!
08!
09!
0:!
0/
10
11
02
13
14
05
16
0D
1E
1F
0G
1H
1I
0J
1K
1N
1O
1P
1Q
0R
0S
0T
0U
0;!
0<!
0=!
0>!
0?!
0@!
xA!
xB!
xC!
xD!
xE!
xF!
xG!
0H!
0I!
1^
1_
1`
0a
1Z
1[
1\
0]
1#
1$
1%
1&
0'
0(
0)
0*
$end
#10000
1!
1-
1C
1X
1i
1v
1a
1w
#20000
0!
1/
00
12
03
15
06
17
0C
0K
1J
0H
1G
0E
1D
1L
1x
16!
0h
1f
0e
1c
0b
0v
0a
1$!
0-!
14!
17!
0.!
0w
#30000
1!
07
0-
1C
0L
0X
0i
0x
1v
1a
0$!
1-!
04!
07!
1.!
1w
#40000
0!
17
10
13
05
16
0C
1L
1K
0J
1H
1E
1h
1e
0c
1b
1x
0v
0a
1$!
0-!
14!
17!
0.!
0w
#50000
1!
07
1C
0L
0x
1v
1a
0$!
1-!
04!
07!
1.!
1w
#60000
0!
17
00
03
15
06
02
04
1"
0C
1L
0K
1J
0I
0H
0G
0E
1B
1{
0h
0f
0e
0d
1c
0b
1x
0v
1]
0a
1$!
0-!
14!
17!
0.!
0w
1|
#70000
1!
07
1-
1C
0L
1X
1i
0x
1v
1a
0$!
1-!
04!
07!
1.!
1w
1/!
18!
1j
1M
18
#80000
0!
17
13
05
16
12
14
0C
1L
1K
0J
1I
1H
1G
1f
1e
1d
0c
1b
1x
0v
0a
1$!
0-!
14!
17!
0.!
0w
#90000
1!
07
0-
1C
0L
0X
0i
0x
1v
1a
0$!
1-!
04!
07!
1.!
1w
#100000
0!
17
06
10
0/
0C
1L
0K
1E
0D
06!
1h
0b
1x
0v
0a
1$!
0-!
14!
0.!
0w
#110000
1!
07
1-
1C
0L
1X
1i
0x
1v
1a
0$!
1-!
04!
1.!
1w
#120000
0!
17
16
04
01
0C
1L
1K
0I
0F
0g
0d
1b
1x
0v
0a
1$!
0-!
14!
0.!
0w
#130000
1!
07
1C
0L
0x
1v
1a
0$!
1-!
04!
1.!
1w
#140000
0!
17
0-
00
15
02
0C
1L
0X
1J
0G
0E
0h
0f
1c
0i
1x
0v
0a
1$!
0-!
14!
0.!
0w
#150000
1!
07
1C
0L
0x
1v
1a
0$!
1-!
04!
1.!
1w
#160000
0!
05
06
14
1/
03
0C
0K
0J
1I
0H
1D
16!
0e
1d
0c
0b
0v
0a
0w
#170000
1!
1C
1v
1a
1w
#180000
0!
15
0/
10
12
0C
1J
1G
1E
0D
06!
1h
1f
1c
0v
0a
0w
#190000
1!
1C
1v
1a
1w
#200000
0!
1/
04
11
0C
0I
1F
1D
16!
1g
0d
0v
0a
0w
#210000
1!
1C
1v
1a
1w
#220000
0!
0/
13
0C
1H
0D
06!
1e
0v
0a
0w
#230000
1!
1C
1v
1a
1w
#240000
0!
1/
03
14
01
05
00
02
16
0C
1K
0J
1I
0H
0G
0F
0E
1D
16!
0h
0g
0f
0e
1d
0c
1b
0v
0a
0w
#250000
1!
1C
1v
1a
1w
#260000
0!
0/
04
15
10
12
06
0C
0K
1J
0I
1G
1E
0D
06!
1h
1f
0d
1c
0b
0v
0a
0w
#270000
1!
1C
1v
1a
1w
#280000
0!
14
16
11
0C
1K
1I
1F
1g
1d
1b
0v
0a
0w
#290000
1!
1C
1v
1a
1w
#300000
0!
04
01
1/
05
00
02
13
0C
0J
0I
1H
0G
0F
0E
1D
16!
0h
0g
0f
1e
0d
0c
0v
0a
0w
#310000
1!
1C
1v
1a
1w
#320000
0!
10
12
06
0C
0K
1G
1E
1h
1f
0b
0v
0a
0w
#330000
1!
1C
1v
1a
1w
#340000
0!
02
0/
15
0C
1J
0G
0D
06!
0f
1c
0v
0a
0w
#350000
1!
1C
1v
1a
1w
#360000
0!
1/
00
0C
0E
1D
16!
0h
0v
0a
0w
#370000
1!
1C
1v
1a
1w
#380000
0!
12
05
14
0C
0J
1I
1G
1f
1d
0c
0v
0a
0w
#390000
1!
1C
1v
1a
1w
#400000
0!
02
04
0/
16
03
0C
1K
0I
0H
0G
0D
06!
0f
0e
0d
1b
0v
0a
0w
#410000
1!
1C
1v
1a
1w
#420000
0!
12
14
1/
06
10
11
0C
0K
1I
1G
1F
1E
1D
16!
1h
1g
1f
1d
0b
0v
0a
0w
#430000
1!
1C
1v
1a
1w
#440000
0!
02
04
0/
16
01
13
15
0C
1K
1J
0I
1H
0G
0F
0D
06!
0g
0f
1e
0d
1c
1b
0v
0a
0w
#450000
1!
1C
1v
1a
1w
#460000
0!
14
1/
06
05
0C
0K
0J
1I
1D
16!
1d
0c
0b
0v
0a
0w
#470000
1!
1C
1v
1a
1w
#480000
0!
0/
15
11
03
00
0C
1J
0H
1F
0E
0D
06!
0h
1g
0e
1c
0v
0a
0w
#490000
1!
1C
1v
1a
1w
#500000
0!
1/
01
12
0C
1G
0F
1D
16!
0g
1f
0v
0a
0w
#510000
1!
1C
1v
1a
1w
#520000
0!
0/
11
05
0C
0J
1F
0D
06!
1g
0c
0v
0a
0w
#530000
1!
1C
1v
1a
1w
#540000
0!
1/
04
16
0C
1K
0I
1D
16!
0d
1b
0v
0a
0w
#550000
1!
1C
1v
1a
1w
#560000
0!
14
06
02
13
10
0C
0K
1I
1H
0G
1E
1h
0f
1e
1d
0b
0v
0a
0w
#570000
1!
1C
1v
1a
1w
#580000
0!
04
0/
01
0C
0I
0F
0D
06!
0g
0d
0v
0a
0w
#590000
1!
1C
1v
1a
1w
#600000
0!
11
16
12
03
0C
1K
0H
1G
1F
1g
1f
0e
1b
0v
0a
0w
#610000
1!
1C
1v
1a
1w
#620000
0!
01
14
1/
00
15
0C
1J
1I
0F
0E
1D
16!
0h
0g
1d
1c
0v
0a
0w
#630000
1!
1C
1v
1a
1w
#640000
0!
0/
05
06
0C
0K
0J
0D
06!
0c
0b
0v
0a
0w
#650000
1!
1C
1v
1a
1w
#660000
0!
1/
04
10
02
0C
0I
0G
1E
1D
16!
1h
0f
0d
0v
0a
0w
#670000
1!
1C
1v
1a
1w
#680000
0!
0/
14
00
12
11
0C
1I
1G
1F
0E
0D
06!
0h
1g
1f
1d
0v
0a
0w
#690000
1!
1C
1v
1a
1w
#700000
0!
1/
04
02
16
0C
1K
0I
0G
1D
16!
0f
0d
1b
0v
0a
0w
#710000
1!
1C
1v
1a
1w
#720000
0!
14
06
10
15
13
0C
0K
1J
1I
1H
1E
1h
1e
1d
1c
0b
0v
0a
0w
#730000
1!
1C
1v
1a
1w
#740000
0!
00
05
0/
12
0C
0J
1G
0E
0D
06!
0h
1f
0c
0v
0a
0w
#750000
1!
1C
1v
1a
1w
#760000
0!
15
04
03
0C
1J
0I
0H
0e
0d
1c
0v
0a
0w
#770000
1!
1C
1v
1a
1w
#780000
0!
05
14
13
0C
0J
1I
1H
1e
1d
0c
0v
0a
0w
#790000
1!
1C
1v
1a
1w
#800000
0!
03
1/
16
01
0C
1K
0H
0F
1D
16!
0g
0e
1b
0v
0a
0w
#810000
1!
1C
1v
1a
1w
#820000
0!
0/
06
04
10
0C
0K
0I
1E
0D
06!
1h
0d
0b
0v
0a
0w
#830000
1!
1C
1v
1a
1w
#840000
0!
14
00
15
02
0C
1J
1I
0G
0E
0h
0f
1d
1c
0v
0a
0w
#850000
1!
1C
1v
1a
1w
#860000
0!
05
1/
16
13
11
0C
1K
0J
1H
1F
1D
16!
1g
1e
0c
1b
0v
0a
0w
#870000
1!
1C
1v
1a
1w
#880000
0!
15
0/
06
04
10
12
0C
0K
1J
0I
1G
1E
0D
06!
1h
1f
0d
1c
0b
0v
0a
0w
#890000
1!
1C
1v
1a
1w
#900000
0!
05
1/
16
03
01
0C
1K
0J
0H
0F
1D
16!
0g
0e
0c
1b
0v
0a
0w
#910000
1!
1C
1v
1a
1w
#920000
0!
15
11
14
00
02
0C
1J
1I
0G
1F
0E
0h
1g
0f
1d
1c
0v
0a
0w
#930000
1!
1C
1v
1a
1w
#940000
0!
05
13
0C
0J
1H
1e
0c
0v
0a
0w
#950000
1!
1C
1v
1a
1w
#960000
0!
04
10
0/
06
0C
0K
0I
1E
0D
06!
1h
0d
0b
0v
0a
0w
#970000
1!
1C
1v
1a
1w
#980000
0!
00
03
01
0C
0H
0F
0E
0h
0g
0e
0v
0a
0w
#990000
1!
0"
1C
0B
0{
1v
0]
1a
1w
0|
0/!
08!
0j
0M
08
